Chapter 1 Introduction | Steffi’s Practical Guide
…
Figure 1.1: Artwork by Allison Horst

Check out the data:

penguins

## # A tibble: 344 × 9
##    species island    bill_length_mm bill_depth_mm flipper_length_mm body_mass_g sex     year size 
##    <fct>   <fct>              <dbl>         <dbl>             <int>       <int> <fct>  <int> <lgl>
##  1 Adelie  Torgersen           39.1          18.7               181        3750 male    2007 FALSE
##  2 Adelie  Torgersen           39.5          17.4               186        3800 female  2007 FALSE
##  3 Adelie  Torgersen           40.3          18                 195        3250 female  2007 FALSE
##  4 Adelie  Torgersen           NA            NA                  NA          NA <NA>    2007 NA   
##  5 Adelie  Torgersen           36.7          19.3               193        3450 female  2007 FALSE
##  6 Adelie  Torgersen           39.3          20.6               190        3650 male    2007 FALSE
##  7 Adelie  Torgersen           38.9          17.8               181        3625 female  2007 FALSE
##  8 Adelie  Torgersen           39.2          19.6               195        4675 male    2007 FALSE
##  9 Adelie  Torgersen           34.1          18.1               193        3475 <NA>    2007 FALSE
## 10 Adelie  Torgersen           42            20.2               190        4250 <NA>    2007 FALSE
## # … with 334 more rows
…
